<?xml version="1.0" standalone="no"?>
<!DOCTYPE svg PUBLIC "-//W3C//DTD SVG 20010904//EN"
 "http://www.w3.org/TR/2001/REC-SVG-20010904/DTD/svg10.dtd">
<svg version="1.0" xmlns="http://www.w3.org/2000/svg"
 width="512.000000pt" height="512.000000pt" viewBox="0 0 512.000000 512.000000"
 preserveAspectRatio="xMidYMid meet">

<g transform="translate(0.000000,512.000000) scale(0.100000,-0.100000)"
fill="#ffffff" stroke="none">
<path d="M2385 4673 c-222 -47 -431 -193 -547 -381 l-37 -61 57 -16 c31 -9 99
-35 151 -58 l94 -41 16 25 c31 49 131 139 187 167 90 45 158 62 254 62 96 0
164 -17 254 -62 56 -28 156 -118 187 -167 l16 -25 94 41 c52 23 120 49 151 58
l57 16 -37 61 c-118 192 -335 341 -559 384 -95 18 -248 17 -338 -3z"/>
<path d="M1303 4036 c-450 -86 -798 -447 -863 -895 -19 -124 -8 -313 24 -429
53 -192 140 -339 286 -484 54 -54 103 -98 108 -98 5 0 14 37 21 81 7 45 23
119 37 166 13 46 24 88 24 93 0 6 -21 38 -46 72 -95 128 -144 278 -144 440 0
129 21 221 77 338 40 82 59 108 142 191 83 83 109 102 191 142 117 56 209 77
338 77 162 0 312 -49 440 -144 34 -25 66 -46 72 -46 5 0 47 11 93 24 47 14
121 30 166 37 44 7 81 16 81 21 0 5 -44 54 -97 108 -146 146 -292 233 -485
286 -116 32 -348 42 -465 20z"/>
<path d="M3459 4040 c-145 -25 -292 -82 -421 -165 -69 -44 -268 -232 -268
-253 0 -5 24 -12 53 -16 28 -3 107 -20 174 -37 l121 -30 64 47 c128 95 277
144 440 144 129 0 221 -21 338 -77 82 -40 107 -59 191 -142 79 -79 103 -111
137 -181 130 -264 106 -559 -63 -789 -25 -34 -45 -65 -45 -71 0 -5 11 -47 24
-93 14 -47 30 -121 37 -166 7 -44 16 -81 20 -81 17 0 168 152 221 224 200 269
261 631 161 951 -118 377 -443 662 -832 730 -88 16 -274 18 -352 5z"/>
<path d="M2385 3404 c-183 -27 -335 -74 -490 -150 -405 -200 -696 -577 -798
-1032 -18 -82 -21 -128 -21 -302 0 -174 3 -220 21 -302 101 -450 393 -831 788
-1027 247 -123 457 -168 735 -158 227 9 403 53 605 153 406 201 690 569 795
1029 27 116 37 365 21 490 -66 498 -374 932 -816 1149 -225 111 -373 146 -630
151 -99 2 -193 1 -210 -1z m381 -329 c241 -43 454 -156 630 -337 100 -103 153
-176 213 -294 92 -184 126 -344 118 -569 -6 -183 -33 -298 -105 -450 -66 -136
-118 -211 -225 -322 -225 -233 -510 -353 -837 -353 -319 0 -584 108 -817 333
-233 225 -353 510 -353 837 0 251 68 469 212 677 58 84 208 232 294 290 133
91 300 160 451 187 106 19 310 20 419 1z"/>
<path d="M2112 2433 c-49 -24 -75 -68 -80 -132 -4 -66 20 -111 78 -145 33 -20
54 -21 327 -24 l292 -3 -62 -92 c-164 -240 -317 -583 -317 -710 0 -99 96 -171
195 -146 67 17 97 57 140 187 88 269 243 522 459 750 72 76 96 109 102 137 14
79 -17 149 -80 179 -30 14 -93 16 -528 16 -434 0 -497 -2 -526 -17z"/>
</g>
</svg>
