{
  "activeViewId" : "adfc77ef-85fa-41bd-9aeb-20e9afe64c75",
  "appPageId" : "c6259c98-edf8-41e9-8d59-bb771c0d99b0",
  "id" : "f35d030c-a568-4420-a972-f0472290a79c",
  "label" : "Account Management",
  "routeType" : "account-management",
  "type" : "route",
  "urlPrefix" : "account-management"
}