{
  "activeViewId" : "10ed5c94-dca0-4f12-a6c7-38f66d62ca8f",
  "appPageId" : "c6259c98-edf8-41e9-8d59-bb771c0d99b0",
  "id" : "2d655723-4f18-44d1-9dda-e2fa8d7f8a60",
  "label" : "Case List",
  "routeType" : "list-500",
  "type" : "route",
  "urlPrefix" : "case"
}