{
  "activeViewId" : "8e8e7308-06a2-4e67-a65f-402ce6dcef98",
  "appPageId" : "c6259c98-edf8-41e9-8d59-bb771c0d99b0",
  "id" : "743d1621-5f77-466f-8f92-3dbe537ab005",
  "label" : "Course List",
  "objectApiName" : "hed__Course__c",
  "routeType" : "list-a05",
  "type" : "route",
  "urlPrefix" : "course"
}