{
  "activeViewId" : "dcf324ea-3d4e-4c00-b133-2ef8f8fec885",
  "appPageId" : "c6259c98-edf8-41e9-8d59-bb771c0d99b0",
  "id" : "c6d19e21-80bf-4771-9f21-3100c878c581",
  "label" : "Course Offering Detail",
  "objectApiName" : "hed__Course_Offering__c",
  "routeType" : "detail-a04",
  "type" : "route",
  "urlPrefix" : "course-offering"
}