{
  "activeViewId" : "a583f5a6-c2c6-47b5-9f91-bce77cfd9bf3",
  "appPageId" : "c6259c98-edf8-41e9-8d59-bb771c0d99b0",
  "id" : "cfdb72d5-a05c-4998-a0ef-a590c2636a9d",
  "label" : "Dashboard List",
  "routeType" : "list-01Z",
  "type" : "route",
  "urlPrefix" : "dashboard"
}