{
  "activeViewId" : "1117a539-888e-4c55-8c73-cc65bb654cb5",
  "appPageId" : "c6259c98-edf8-41e9-8d59-bb771c0d99b0",
  "id" : "b5538ded-081c-4060-baa6-c5b857d2f8cd",
  "label" : "Error",
  "pageAccess" : "UseParent",
  "routeType" : "error",
  "type" : "route",
  "urlPrefix" : "error"
}