{
  "activeViewId" : "4be0f413-999c-4efa-a649-363e8cabb70d",
  "appPageId" : "c6259c98-edf8-41e9-8d59-bb771c0d99b0",
  "id" : "6c314fd5-11ed-4430-932d-42b721d93787",
  "label" : "Feed Detail",
  "routeType" : "feeditem-generic",
  "type" : "route",
  "urlPrefix" : "feed"
}