{
  "activeViewId" : "39b60246-37b3-4914-814d-258090b992eb",
  "appPageId" : "c6259c98-edf8-41e9-8d59-bb771c0d99b0",
  "id" : "0f6815e2-0468-4b3c-a7e0-f25f7b8ae413",
  "label" : "Flow",
  "pageAccess" : "UseParent",
  "routeType" : "flow",
  "type" : "route",
  "urlPrefix" : "flow"
}