{
  "activeViewId" : "d6b88245-51dc-4205-a32d-20af55326953",
  "appPageId" : "ac19fca0-f0b4-449d-83c0-464432402fda",
  "id" : "250e429e-d736-4c52-a95b-029a629392cc",
  "label" : "Login Error",
  "routeType" : "login-error",
  "type" : "route",
  "urlPrefix" : "error"
}