{
  "activeViewId" : "ecdcaef8-c958-411a-b272-992e0fe63079",
  "appPageId" : "c6259c98-edf8-41e9-8d59-bb771c0d99b0",
  "id" : "1435fb6f-7ea2-435f-a460-d20ee2298322",
  "label" : "My Account",
  "routeType" : "my-account",
  "type" : "route",
  "urlPrefix" : "comm-my-account"
}