{
  "activeViewId" : "87e23e56-c1a4-45ed-bf2b-fef214f2476f",
  "appPageId" : "c6259c98-edf8-41e9-8d59-bb771c0d99b0",
  "id" : "a13ddf6c-b90e-4594-8dcb-de5d46508b02",
  "label" : "Question Detail",
  "routeType" : "feeditem",
  "type" : "route",
  "urlPrefix" : "question"
}