{
  "activeViewId" : "bb9e71f2-8cf9-431b-9536-bb4cfc8b9eee",
  "appPageId" : "c6259c98-edf8-41e9-8d59-bb771c0d99b0",
  "id" : "da2d889e-19cc-49b7-a78e-84c627aaf04c",
  "label" : "Record List",
  "pageAccess" : "UseParent",
  "routeType" : "list",
  "type" : "route",
  "urlPrefix" : "recordlist"
}