{
  "activeViewId" : "96756b08-7318-43bf-8414-97d2bb6a0531",
  "appPageId" : "c6259c98-edf8-41e9-8d59-bb771c0d99b0",
  "id" : "20dd7681-8d4c-4aef-8b63-e70e48448dbf",
  "label" : "Report Detail",
  "routeType" : "detail-00O",
  "type" : "route",
  "urlPrefix" : "report"
}