{
  "activeViewId" : "38830189-fd30-4fe7-a5e2-f119e459bd85",
  "appPageId" : "c6259c98-edf8-41e9-8d59-bb771c0d99b0",
  "id" : "67f9fc24-dfb5-4aae-bf95-490e08a6f8e4",
  "label" : "Search",
  "pageAccess" : "UseParent",
  "routeType" : "global-search",
  "type" : "route",
  "urlPrefix" : "global-search"
}