{
  "activeViewId" : "3694f9b5-aa8c-4314-a03b-82e7c66d84a2",
  "appPageId" : "c6259c98-edf8-41e9-8d59-bb771c0d99b0",
  "id" : "c9f2b59d-7d39-47ba-9a2c-417a0d284ea6",
  "label" : "User List",
  "routeType" : "list-005",
  "type" : "route",
  "urlPrefix" : "profile"
}