{
  "appPageId" : "4ee05bbf-4298-4899-a895-4f1990cbc912",
  "componentName" : "siteforce:sldsOneColLayout",
  "id" : "586581ad-8b16-4c09-a54d-f6b55573b6e7",
  "label" : "File Detail",
  "regions" : [ {
    "id" : "4ea8be4b-db99-4fbd-91a2-6c7d0c58557b",
    "regionName" : "header",
    "type" : "region"
  }, {
    "components" : [ {
      "componentAttributes" : { },
      "componentName" : "forceCommunity:fileDetailPage",
      "id" : "d9821ea2-cb48-4385-9854-745255509615",
      "renderPriority" : "NEUTRAL",
      "renditionMap" : { },
      "type" : "component"
    } ],
    "id" : "8cf33d59-3dea-4901-828d-f2c16ababc5e",
    "regionName" : "content",
    "type" : "region"
  }, {
    "id" : "e46fb15a-24a4-4cfa-938a-96642896970f",
    "regionName" : "footer",
    "type" : "region"
  } ],
  "themeLayoutType" : "Inner",
  "type" : "view",
  "viewType" : "detail-069"
}