{
  "activeViewId" : "02ca4744-3d15-4f92-9137-cfed36d1533a",
  "appPageId" : "4ee05bbf-4298-4899-a895-4f1990cbc912",
  "id" : "bda20ad5-cab3-414c-9522-76a1aec3e558",
  "label" : "Home",
  "routeType" : "home",
  "type" : "route",
  "urlPrefix" : ""
}