{
  "appPageId" : "c6259c98-edf8-41e9-8d59-bb771c0d99b0",
  "componentName" : "siteforce:sldsOneColLayout",
  "id" : "3672b7af-028a-4477-bfd1-96364102dcf4",
  "label" : "Course Offering Related List",
  "regions" : [ {
    "id" : "16fd7b72-bcc9-4856-a163-e7033a03d361",
    "regionName" : "header",
    "type" : "region"
  }, {
    "components" : [ {
      "componentAttributes" : {
        "customTitle" : "",
        "parentRecordId" : "{!parentRecordId}",
        "relatedListName" : "{!relatedListName}",
        "showBreadCrumbs" : true,
        "showCustomTitle" : false,
        "showManualRefreshButton" : true,
        "showRowNumbers" : true
      },
      "componentName" : "forceCommunity:relatedList",
      "id" : "643a2d7e-0c6b-4544-9374-eec2e6569ee9",
      "renderPriority" : "NEUTRAL",
      "renditionMap" : { },
      "type" : "component"
    } ],
    "id" : "41dcec88-a9e4-45d5-b063-6641e273524a",
    "regionName" : "content",
    "type" : "region"
  }, {
    "id" : "18ddc136-c960-4358-a45f-5f3378d85676",
    "regionName" : "footer",
    "type" : "region"
  } ],
  "themeLayoutType" : "Inner",
  "type" : "view",
  "viewType" : "relatedlist-a04"
}