{
  "appPageId" : "c6259c98-edf8-41e9-8d59-bb771c0d99b0",
  "componentName" : "siteforce:sldsOneColLayout",
  "id" : "d3126fa4-f946-45e9-a71e-9e4f9a924408",
  "label" : "File Related List",
  "regions" : [ {
    "id" : "0bbd1e3f-1f69-4be7-ad6a-b7f0efc34738",
    "regionName" : "header",
    "type" : "region"
  }, {
    "components" : [ {
      "componentAttributes" : {
        "customTitle" : "",
        "parentRecordId" : "{!parentRecordId}",
        "relatedListName" : "{!relatedListName}",
        "showBreadCrumbs" : true,
        "showCustomTitle" : false,
        "showManualRefreshButton" : true,
        "showRowNumbers" : true
      },
      "componentName" : "forceCommunity:relatedList",
      "id" : "79d59e86-c721-46e2-8aa0-339381d4292b",
      "renderPriority" : "NEUTRAL",
      "renditionMap" : { },
      "type" : "component"
    } ],
    "id" : "d8eaae75-59b1-4070-a85c-62ccce62d734",
    "regionName" : "content",
    "type" : "region"
  }, {
    "id" : "e56ccda4-2b3c-41b2-b902-2a65ab0b9531",
    "regionName" : "footer",
    "type" : "region"
  } ],
  "themeLayoutType" : "Inner",
  "type" : "view",
  "viewType" : "relatedlist-069"
}