{
  "appPageId" : "ac19fca0-f0b4-449d-83c0-464432402fda",
  "componentName" : "siteforce:sldsOneColLayout",
  "id" : "d7330b4f-f247-479c-9adf-b397988cb391",
  "label" : "Forgot Password",
  "regions" : [ {
    "components" : [ {
      "componentAttributes" : {
        "richTextValue" : "<div style=\"text-align: center;\"><span style=\"font-size:22px\">PASSWORD RESET</span></div>"
      },
      "componentName" : "forceCommunity:richTextInline",
      "id" : "2e6ff274-3d93-471c-b89a-61ddc10fd6ad",
      "renderPriority" : "NEUTRAL",
      "renditionMap" : { },
      "type" : "component"
    }, {
      "componentAttributes" : {
        "richTextValue" : "<div style=\"text-align: center;\">Please enter the email address that you used when creating your account. An email will be sent to that address with further instructions on how to reset your password.</div>"
      },
      "componentName" : "forceCommunity:richTextInline",
      "id" : "3507b0ea-8156-40b9-aa25-eaea4c1e69c8",
      "renderPriority" : "NEUTRAL",
      "renditionMap" : { },
      "type" : "component"
    }, {
      "componentAttributes" : {
        "checkEmailUrl" : "./CheckPasswordResetEmail",
        "submitButtonLabel" : "Send Password Reset Email",
        "usernameLabel" : "Username"
      },
      "componentName" : "salesforceIdentity:forgotPassword2",
      "id" : "72456900-3319-4974-a574-8bc66368f313",
      "renderPriority" : "NEUTRAL",
      "renditionMap" : { },
      "type" : "component"
    }, {
      "componentAttributes" : {
        "richTextValue" : "<div style=\"text-align: center;\"><a href=\"./\">Cancel</a></div>"
      },
      "componentName" : "forceCommunity:richTextInline",
      "id" : "836c0803-c521-4c19-8b54-0e646352edc7",
      "renderPriority" : "NEUTRAL",
      "renditionMap" : { },
      "type" : "component"
    } ],
    "id" : "2b93c6ea-f8cb-4c15-b372-226ae3e6d744",
    "regionName" : "content",
    "type" : "region"
  }, {
    "components" : [ {
      "componentAttributes" : {
        "description" : "",
        "metaTags" : "",
        "title" : "Forgot Password"
      },
      "componentName" : "forceCommunity:seoAssistant",
      "id" : "4c72e24f-1cc3-4936-96fa-cdae0f0ca475",
      "renditionMap" : { },
      "type" : "component"
    } ],
    "id" : "fffb463f-1f3c-44d9-b820-6ca692024ec9",
    "regionName" : "sfdcHiddenRegion",
    "type" : "region"
  } ],
  "themeLayoutType" : "Login",
  "type" : "view",
  "viewType" : "forgot-password"
}