{
  "appPageId" : "c6259c98-edf8-41e9-8d59-bb771c0d99b0",
  "componentName" : "siteforce:sldsOneColLayout",
  "id" : "bb9e71f2-8cf9-431b-9536-bb4cfc8b9eee",
  "label" : "Record List",
  "regions" : [ {
    "components" : [ {
      "componentAttributes" : {
        "richTextValue" : "<p><a href=\"https://asuprepdigital--live.na40.force.com/portal/s/staff-portal\" target=\"_self\">Home</a></p><h3>Display All Students</h3><p>This list shows all students that have been entered in Salesforce. It is <b><u>NOT</u></b> a comprehensive list of all students enrolled at ASU Prep.&nbsp;&nbsp;Student data may be outdated.</p><p>In the future, the Student Information System and Salesforce will integrate and collaborate in such a way as to share student record data. As a temporary and interim solution, however, please keep student records as current as possible in our Salesforce database.&nbsp;</p>"
      },
      "componentName" : "forceCommunity:richTextInline",
      "id" : "85c2f66b-21d4-4b23-9f95-b4cb4523518c",
      "renderPriority" : "NEUTRAL",
      "renditionMap" : { },
      "type" : "component"
    } ],
    "id" : "7be8b923-03ab-4752-b371-6c56a923d8a7",
    "regionName" : "header",
    "type" : "region"
  }, {
    "components" : [ {
      "componentAttributes" : {
        "filterName" : "00B46000005h24ZEAQ",
        "layout" : "FULL",
        "pageSize" : 25,
        "scope" : "Contact",
        "showDisplay" : "showall"
      },
      "componentName" : "forceCommunity:objectHome",
      "id" : "ec3fe93c-0046-4205-8ccb-462398393ac4",
      "renderPriority" : "NEUTRAL",
      "renditionMap" : { },
      "type" : "component"
    } ],
    "id" : "cd85a448-f38f-48b5-ab02-966ea52e41ec",
    "regionName" : "content",
    "type" : "region"
  }, {
    "id" : "76301d47-c93f-42d2-9e29-84199bdbfbff",
    "regionName" : "footer",
    "type" : "region"
  } ],
  "themeLayoutType" : "Inner",
  "type" : "view",
  "viewType" : "list"
}