{
  "appPageId" : "c6259c98-edf8-41e9-8d59-bb771c0d99b0",
  "componentName" : "siteforce:sldsOneColLayout",
  "id" : "9bbaee43-22e6-47f5-bffe-a0ba41ade4e1",
  "label" : "User Related List",
  "regions" : [ {
    "id" : "345f17f5-8d1d-4e54-ba52-8b566fcace09",
    "regionName" : "header",
    "type" : "region"
  }, {
    "components" : [ {
      "componentAttributes" : {
        "customTitle" : "",
        "parentRecordId" : "{!parentRecordId}",
        "relatedListName" : "{!relatedListName}",
        "showBreadCrumbs" : true,
        "showCustomTitle" : false,
        "showManualRefreshButton" : true,
        "showRowNumbers" : true
      },
      "componentName" : "forceCommunity:relatedList",
      "id" : "956d6f42-e525-42f7-8c87-714e9d1dd548",
      "renderPriority" : "NEUTRAL",
      "renditionMap" : { },
      "type" : "component"
    } ],
    "id" : "c18e3cc7-0bfb-42d7-be69-a6efba644449",
    "regionName" : "content",
    "type" : "region"
  }, {
    "id" : "053843f2-a63f-42a5-a3d2-0ab4de0d9d94",
    "regionName" : "footer",
    "type" : "region"
  } ],
  "themeLayoutType" : "Inner",
  "type" : "view",
  "viewType" : "relatedlist-005"
}